Introduction to getLattes
…
Normalize functions

The information obtained from the Lattes curriculum is not standardized, so each user inserts the information in certain predefined fields. The problem with such an approach is the errors when inserting the data, here are some examples: - two co-authors of an article, each one feeds his or her Lattes curriculum. However, each one can insert different ISSN codes for the same scientific journal, which can change the journal-title, one title as (Print) and the other as (Online). - the two authors may insert different years for the same article. - the same two authors may mistype the journal-title.

The functions normalizeByDoi, normalizeByJournal, and normalizeByYear correct most problems related to data entry errors.

normalizeByDoi groups all articles together as the same DOI code and uses the most frequent information in the title, year, and journal’s name.

# use explict arguments
normalizeByDoi( pub, doi='doi', year='ano.do.artigo', issn='issn', paperTitle='titulo.do.artigo', journalName='titulo.do.periodico.ou.revista')
#> # A tibble: 183 x 28
#>    natureza titulo.do.artig… ano.do.artigo_o… pais.de.publica… idioma
#>    <chr>    <chr>            <chr>            <chr>            <chr> 
#>  1 COMPLETO Notas sobre a p… 1988             ""               Portu…
#>  2 COMPLETO Structural adju… 1994             ""               Inglês
#>  3 COMPLETO Agribusiness e … 1996             ""               Portu…
#>  4 COMPLETO Propriedade int… 2000             ""               Portu…
#>  5 COMPLETO Comentários sob… 2002             ""               Portu…
#>  6 COMPLETO Does community-… 2001             ""               Inglês
#>  7 COMPLETO In search of me… 2004             ""               Portu…
#>  8 COMPLETO Desafios dos pr… 2003             ""               Portu…
#>  9 COMPLETO Por que reforma… 2003             ""               Portu…
#> 10 COMPLETO Software livre … 2004             ""               Portu…
#> # … with 173 more rows, and 23 more variables: meio.de.divulgacao <chr>,
#> #   home.page.do.trabalho <chr>, flag.relevancia <chr>, doi.x <chr>,
#> #   titulo.do.artigo.ingles <chr>, flag.divulgacao.cientifica <chr>,
#> #   titulo.do.periodico.ou.revista_old <chr>, issn_old <chr>, volume <chr>,
#> #   fasciculo <chr>, serie <chr>, pagina.inicial <chr>, pagina.final <chr>,
#> #   local.de.publicacao <chr>, autores <chr>, autores.citacoes <chr>,
#> #   autores.id <chr>, id <chr>, doi.y <chr>,
#> #   titulo.do.periodico.ou.revista <chr>, issn <chr>, ano.do.artigo <chr>,
#> #   titulo.do.artigo <chr>

# use de defult data frame from getArtigosPublicados
normalizeByDoi(pub)
#> # A tibble: 183 x 28
#>    natureza titulo.do.artig… ano.do.artigo_o… pais.de.publica… idioma
#>    <chr>    <chr>            <chr>            <chr>            <chr> 
#>  1 COMPLETO Notas sobre a p… 1988             ""               Portu…
#>  2 COMPLETO Structural adju… 1994             ""               Inglês
#>  3 COMPLETO Agribusiness e … 1996             ""               Portu…
#>  4 COMPLETO Propriedade int… 2000             ""               Portu…
#>  5 COMPLETO Comentários sob… 2002             ""               Portu…
#>  6 COMPLETO Does community-… 2001             ""               Inglês
#>  7 COMPLETO In search of me… 2004             ""               Portu…
#>  8 COMPLETO Desafios dos pr… 2003             ""               Portu…
#>  9 COMPLETO Por que reforma… 2003             ""               Portu…
#> 10 COMPLETO Software livre … 2004             ""               Portu…
#> # … with 173 more rows, and 23 more variables: meio.de.divulgacao <chr>,
#> #   home.page.do.trabalho <chr>, flag.relevancia <chr>, doi.x <chr>,
#> #   titulo.do.artigo.ingles <chr>, flag.divulgacao.cientifica <chr>,
#> #   titulo.do.periodico.ou.revista_old <chr>, issn_old <chr>, volume <chr>,
#> #   fasciculo <chr>, serie <chr>, pagina.inicial <chr>, pagina.final <chr>,
#> #   local.de.publicacao <chr>, autores <chr>, autores.citacoes <chr>,
#> #   autores.id <chr>, id <chr>, doi.y <chr>,
#> #   titulo.do.periodico.ou.revista <chr>, issn <chr>, ano.do.artigo <chr>,
#> #   titulo.do.artigo <chr>
…
